{
  "key": "search:66f6106870bd8afdeb80dfebd5680560:1:1",
  "value": {
    "results": [
      {
        "id": "GSE300482",
        "title": "Single nuclei RNAseq of human Rett syndrome neurons cortical samples after sorting for MECP2 expression",
        "abstract": "Here we employed sc-RNA-seq on nuclei from MECP2 Syndrome brain and normal brain to understand the effect of loss of MECP2 on neurons compared to both MECP2+ neurons in isogenic MECP2 Syndrome brain, as well as to WT brain to determine which changes are due directly to loss of MECP2, and in transgenic rats lacking MECP2.",
        "authors": [],
        "relevance_score": 0.0,
        "metadata": {
          "organism": "Homo sapiens",
          "sample_count": "8",
          "ai_summary": {
            "overview": "Dataset GSE300482: Single nuclei RNAseq of human Rett syndrome neurons cortical samples after sorting for MECP2 expression",
            "brief": "GSE300482: Single nuclei RNAseq of human Rett syndrome neurons cortical samples after sorting for MECP2 expression using ."
          },
          "overall_design": "From 5 individual Rett syndrome patient brain samples, we isolated nuclei using sucrose gradient centrifugation and sorted using FACS for neurons with low and high MECP2 expression to study transcriptional changes associated with MECP2 mutation."
        }
      }
    ],
    "pagination": {
      "total_count": 2,
      "page": 1,
      "page_size": 1,
      "total_pages": 2
    },
    "meta": {
      "query": "GSE300482",
      "search_type": "basic",
      "execution_time": 117.91119480133057,
      "filters_applied": {},
      "suggestions": []
    }
  },
  "created_at": "2025-06-25T04:27:44.257489",
  "ttl": 3600
}
